<?xml version="1.0" encoding="UTF-8" standalone="no"?>
<!-- Created with Inkscape (http://www.inkscape.org/) -->

<svg
   xmlns:dc="http://purl.org/dc/elements/1.1/"
   xmlns:cc="http://creativecommons.org/ns#"
   xmlns:rdf="http://www.w3.org/1999/02/22-rdf-syntax-ns#"
   xmlns:svg="http://www.w3.org/2000/svg"
   xmlns="http://www.w3.org/2000/svg"
   xmlns:sodipodi="http://sodipodi.sourceforge.net/DTD/sodipodi-0.dtd"
   xmlns:inkscape="http://www.inkscape.org/namespaces/inkscape"
   width="74.347916mm"
   height="63.775169mm"
   viewBox="0 0 74.347916 63.775169"
   version="1.1"
   id="svg8"
   inkscape:version="0.92.1 r15371"
   sodipodi:docname="Logo.svg">
  <defs
     id="defs2" />
  <sodipodi:namedview
     id="base"
     pagecolor="#ffffff"
     bordercolor="#666666"
     borderopacity="1.0"
     inkscape:pageopacity="0.0"
     inkscape:pageshadow="2"
     inkscape:zoom="0.9899495"
     inkscape:cx="-125.46158"
     inkscape:cy="21.605237"
     inkscape:document-units="mm"
     inkscape:current-layer="layer2"
     showgrid="true"
     showguides="false"
     inkscape:window-width="1920"
     inkscape:window-height="990"
     inkscape:window-x="0"
     inkscape:window-y="0"
     inkscape:window-maximized="1"
     fit-margin-top="0"
     fit-margin-left="0"
     fit-margin-right="0"
     fit-margin-bottom="0">
    <inkscape:grid
       type="xygrid"
       id="grid3680"
       originx="-15.742707"
       originy="-153.32075" />
  </sodipodi:namedview>
  <metadata
     id="metadata5">
    <rdf:RDF>
      <cc:Work
         rdf:about="">
        <dc:format>image/svg+xml</dc:format>
        <dc:type
           rdf:resource="http://purl.org/dc/dcmitype/StillImage" />
        <dc:title></dc:title>
      </cc:Work>
    </rdf:RDF>
  </metadata>
  <g
     inkscape:label="Рёбра"
     inkscape:groupmode="layer"
     id="layer1"
     transform="translate(-15.742707,-79.904082)">
    <g
       id="g3693"
       style="stroke:#ff7500;stroke-opacity:0.78431373">
      <path
         sodipodi:nodetypes="ccc"
         inkscape:connector-curvature="0"
         id="path3684"
         d="M 34.395833,85.333333 52.916667,80.041667 71.4375,85.333333"
         style="fill:none;stroke:#ff7500;stroke-width:0.26458332px;stroke-linecap:butt;stroke-linejoin:miter;stroke-opacity:0.78431373" />
      <path
         inkscape:connector-curvature="0"
         id="path3686"
         d="M 34.395833,85.333333 V 109.14583 L 52.916666,114.4375 71.4375,109.14583 V 85.333333"
         style="fill:none;stroke:#ff7500;stroke-width:0.26458332px;stroke-linecap:butt;stroke-linejoin:miter;stroke-opacity:0.78431373"
         sodipodi:nodetypes="ccccc" />
      <path
         inkscape:connector-curvature="0"
         id="path3688"
         d="m 52.916666,90.625 v 23.8125"
         style="fill:none;stroke:#ff7500;stroke-width:0.26458332px;stroke-linecap:butt;stroke-linejoin:miter;stroke-opacity:0.78431373" />
      <path
         sodipodi:nodetypes="ccc"
         inkscape:connector-curvature="0"
         id="path3684-2"
         d="M 34.395832,85.333334 52.916667,90.625 71.437499,85.333334"
         style="fill:none;stroke:#ff7500;stroke-width:0.26458332px;stroke-linecap:butt;stroke-linejoin:miter;stroke-opacity:0.78431373" />
    </g>
    <g
       transform="translate(-18.520834,29.104167)"
       id="g3693-7"
       style="stroke:#ff7500;stroke-opacity:0.78431373">
      <path
         sodipodi:nodetypes="ccc"
         inkscape:connector-curvature="0"
         id="path3684-0"
         d="M 34.395833,85.333333 52.916667,80.041667 71.4375,85.333333"
         style="fill:none;stroke:#ff7500;stroke-width:0.26458332px;stroke-linecap:butt;stroke-linejoin:miter;stroke-opacity:0.78431373" />
      <path
         inkscape:connector-curvature="0"
         id="path3686-9"
         d="M 34.395833,85.333333 V 109.14583 L 52.916666,114.4375 71.4375,109.14583 V 85.333333"
         style="fill:none;stroke:#ff7500;stroke-width:0.26458332px;stroke-linecap:butt;stroke-linejoin:miter;stroke-opacity:0.78431373"
         sodipodi:nodetypes="ccccc" />
      <path
         inkscape:connector-curvature="0"
         id="path3688-3"
         d="m 52.916666,90.625 v 23.8125"
         style="fill:none;stroke:#ff7500;stroke-width:0.26458332px;stroke-linecap:butt;stroke-linejoin:miter;stroke-opacity:0.78431373" />
      <path
         sodipodi:nodetypes="ccc"
         inkscape:connector-curvature="0"
         id="path3684-2-6"
         d="M 34.395832,85.333334 52.916667,90.625 71.437499,85.333334"
         style="fill:none;stroke:#ff7500;stroke-width:0.26458332px;stroke-linecap:butt;stroke-linejoin:miter;stroke-opacity:0.78431373" />
    </g>
    <g
       transform="translate(18.520833,29.104167)"
       id="g3693-0"
       style="stroke:#ff7500;stroke-opacity:0.78431373">
      <path
         sodipodi:nodetypes="ccc"
         inkscape:connector-curvature="0"
         id="path3684-6"
         d="M 34.395833,85.333333 52.916667,80.041667 71.4375,85.333333"
         style="fill:none;stroke:#ff7500;stroke-width:0.26458332px;stroke-linecap:butt;stroke-linejoin:miter;stroke-opacity:0.78431373" />
      <path
         inkscape:connector-curvature="0"
         id="path3686-2"
         d="M 34.395833,85.333333 V 109.14583 L 52.916666,114.4375 71.4375,109.14583 V 85.333333"
         style="fill:none;stroke:#ff7500;stroke-width:0.26458332px;stroke-linecap:butt;stroke-linejoin:miter;stroke-opacity:0.78431373"
         sodipodi:nodetypes="ccccc" />
      <path
         inkscape:connector-curvature="0"
         id="path3688-6"
         d="m 52.916666,90.625 v 23.8125"
         style="fill:none;stroke:#ff7500;stroke-width:0.26458332px;stroke-linecap:butt;stroke-linejoin:miter;stroke-opacity:0.78431373" />
      <path
         sodipodi:nodetypes="ccc"
         inkscape:connector-curvature="0"
         id="path3684-2-1"
         d="M 34.395832,85.333334 52.916667,90.625 71.437499,85.333334"
         style="fill:none;stroke:#ff7500;stroke-width:0.26458332px;stroke-linecap:butt;stroke-linejoin:miter;stroke-opacity:0.78431373" />
    </g>
  </g>
  <g
     inkscape:groupmode="layer"
     id="layer2"
     inkscape:label="Грани"
     style="display:inline"
     transform="translate(-15.742707,-79.904082)">
    <path
       style="fill:#ff7500;fill-opacity:0.77959188;stroke:none;stroke-width:0.26458332px;stroke-linecap:butt;stroke-linejoin:miter;stroke-opacity:1"
       d="m 34.395833,85.333333 v 23.812497 l 18.520834,5.29167 V 90.625 Z"
       id="path57"
       inkscape:connector-curvature="0"
       sodipodi:nodetypes="ccccc" />
    <path
       style="fill:#ff7500;fill-opacity:0.77959188;stroke:none;stroke-width:0.26458332px;stroke-linecap:butt;stroke-linejoin:miter;stroke-opacity:1"
       d="M 15.875,114.4375 V 138.25 l 18.520834,5.29167 v -23.8125 z"
       id="path57-3"
       inkscape:connector-curvature="0"
       sodipodi:nodetypes="ccccc" />
    <path
       style="fill:#ff7500;fill-opacity:0.77959188;stroke:none;stroke-width:0.26458332px;stroke-linecap:butt;stroke-linejoin:miter;stroke-opacity:1"
       d="M 52.916667,114.4375 V 138.25 l 18.520834,5.29167 v -23.8125 z"
       id="path57-6"
       inkscape:connector-curvature="0"
       sodipodi:nodetypes="ccccc" />
    <path
       style="fill:#ff7500;fill-opacity:0.46122448;stroke:none;stroke-width:0.26458332px;stroke-linecap:butt;stroke-linejoin:miter;stroke-opacity:1"
       d="M 71.4375,85.333333 V 109.14583 L 52.916666,114.4375 V 90.625 Z"
       id="path57-7"
       inkscape:connector-curvature="0"
       sodipodi:nodetypes="ccccc" />
    <path
       style="fill:#ff7500;fill-opacity:0.46122448;stroke:none;stroke-width:0.26458332px;stroke-linecap:butt;stroke-linejoin:miter;stroke-opacity:1"
       d="M 52.916667,114.4375 V 138.25 l -18.520834,5.29167 v -23.8125 z"
       id="path57-7-3"
       inkscape:connector-curvature="0"
       sodipodi:nodetypes="ccccc" />
    <path
       style="fill:#ff7500;fill-opacity:0.46122448;stroke:none;stroke-width:0.26458332px;stroke-linecap:butt;stroke-linejoin:miter;stroke-opacity:1"
       d="M 89.958333,114.4375 V 138.25 l -18.520834,5.29167 v -23.8125 z"
       id="path57-7-5"
       inkscape:connector-curvature="0"
       sodipodi:nodetypes="ccccc" />
    <path
       style="fill:#ff7500;fill-opacity:0.57142861;stroke:none;stroke-width:0.26458332px;stroke-linecap:butt;stroke-linejoin:miter;stroke-opacity:1"
       d="M 52.916667,80.041667 71.4375,85.333333 52.916667,90.625 34.395833,85.333333 Z"
       id="path57-7-6"
       inkscape:connector-curvature="0"
       sodipodi:nodetypes="ccccc" />
    <path
       style="fill:#ff7500;fill-opacity:0.57142861;stroke:none;stroke-width:0.26458332px;stroke-linecap:butt;stroke-linejoin:miter;stroke-opacity:1"
       d="m 71.4375,109.14584 18.520833,5.29167 -18.520833,5.29166 -18.520834,-5.29166 z"
       id="path57-7-6-2"
       inkscape:connector-curvature="0"
       sodipodi:nodetypes="ccccc" />
    <path
       style="fill:#ff7500;fill-opacity:0.57142861;stroke:none;stroke-width:0.26458332px;stroke-linecap:butt;stroke-linejoin:miter;stroke-opacity:1"
       d="m 34.395833,109.14583 18.520833,5.29167 -18.520833,5.29167 -18.520834,-5.29167 z"
       id="path57-7-6-9"
       inkscape:connector-curvature="0"
       sodipodi:nodetypes="ccccc" />
  </g>
</svg>
